﻿  HomeWork_15.cpp
D:\UE4-Projects\HomeWork_15\HomeWork_15.cpp(7,38): warning C4805: '==': unsafe mix of type 'int' and type 'bool' in operation
  HomeWork_15.vcxproj -> D:\UE4-Projects\HomeWork_15\Debug\HomeWork_15.exe
